<?xml version="1.0" encoding="UTF-8" ?>
<!DOCTYPE svg PUBLIC "-//W3C//DTD SVG 1.1//EN" "http://www.w3.org/Graphics/SVG/1.1/DTD/svg11.dtd">
<svg width="110pt" height="110pt" viewBox="0 0 110 110" version="1.1" xmlns="http://www.w3.org/2000/svg">
<path fill="#ffffff" opacity="1.00" d=" M 30.74 0.00 L 60.04 0.00 C 63.99 0.71 67.47 3.84 67.86 7.95 C 68.21 12.85 67.91 17.77 68.00 22.68 C 72.66 22.72 77.33 22.56 81.99 22.73 C 86.39 22.65 90.32 26.62 90.52 30.96 C 90.69 33.18 90.64 35.41 90.62 37.64 C 98.79 40.80 105.76 47.59 107.85 56.25 C 110.74 65.31 107.21 74.80 102.95 82.80 C 97.40 92.71 90.10 101.60 81.87 109.40 C 79.70 107.85 77.78 106.02 76.05 104.01 C 68.67 95.95 61.97 87.10 57.54 77.05 C 39.68 77.05 21.81 77.04 3.95 77.06 C 2.46 77.14 0.95 76.97 0.00 75.68 L 0.00 30.89 C 0.60 27.19 3.10 23.62 6.95 22.91 C 12.16 22.37 17.42 22.82 22.65 22.65 C 22.82 17.41 22.37 12.16 22.91 6.94 C 23.62 3.14 27.11 0.67 30.74 0.00 M 31.31 4.39 C 28.50 4.49 26.75 7.30 27.08 9.92 C 27.09 30.85 27.05 51.78 27.10 72.72 C 30.12 72.75 33.13 72.75 36.15 72.74 C 36.21 66.15 36.11 59.55 36.18 52.95 C 35.94 51.41 37.28 49.76 38.90 49.99 C 43.58 49.98 48.27 49.81 52.94 50.09 C 53.22 50.33 53.79 50.79 54.07 51.02 C 54.35 54.78 54.27 58.55 54.28 62.31 C 54.86 55.35 57.77 48.51 62.92 43.71 C 64.10 42.87 63.52 41.25 63.70 40.05 C 63.62 29.70 63.74 19.34 63.64 8.99 C 63.67 6.13 60.83 4.00 58.09 4.32 C 49.16 4.37 40.23 4.23 31.31 4.39 M 4.36 31.85 C 4.30 45.47 4.30 59.09 4.36 72.71 C 10.45 72.77 16.55 72.77 22.64 72.71 C 22.71 57.51 22.68 42.30 22.65 27.10 C 18.07 27.11 13.48 26.99 8.90 27.12 C 6.34 27.03 4.25 29.34 4.36 31.85 M 68.00 27.08 C 68.00 31.33 68.01 35.59 67.98 39.84 C 69.58 39.15 71.12 38.34 72.73 37.68 C 73.05 35.81 71.89 32.95 74.03 31.93 C 76.37 31.66 78.73 31.86 81.08 31.95 C 81.24 33.32 81.39 34.70 81.54 36.07 C 83.14 36.30 84.75 36.53 86.36 36.76 C 86.45 33.44 87.10 28.49 83.00 27.25 C 78.01 26.84 73.00 27.19 68.00 27.08 M 61.84 52.06 C 58.08 58.50 58.14 66.51 60.81 73.34 C 65.17 84.94 73.25 94.67 81.70 103.54 C 90.81 93.72 99.78 82.99 103.60 69.90 C 106.36 60.16 102.24 48.73 93.23 43.80 C 82.83 37.52 67.62 41.18 61.84 52.06 M 40.71 72.73 C 43.79 72.75 46.87 72.75 49.94 72.72 C 49.97 66.56 49.98 60.40 49.94 54.24 C 46.87 54.21 43.79 54.21 40.72 54.22 C 40.65 60.39 40.66 66.56 40.71 72.73 M 54.22 72.67 C 54.66 72.65 55.53 72.63 55.96 72.62 C 55.22 70.12 54.65 67.57 54.19 65.01 C 54.26 67.56 54.23 70.11 54.22 72.67 Z" />
<path fill="#ffffff" opacity="1.00" d=" M 31.79 12.98 C 31.65 11.39 31.88 8.89 34.04 9.01 C 36.93 9.33 40.81 7.80 42.89 10.40 C 43.17 12.56 43.02 14.74 43.08 16.91 C 40.14 18.87 36.38 17.88 33.06 17.89 C 31.21 16.97 31.98 14.63 31.79 12.98 Z" />
<path fill="#ffffff" opacity="1.00" d=" M 49.12 9.10 C 51.97 8.87 54.87 8.82 57.72 9.19 C 59.48 11.53 59.50 15.44 57.79 17.81 C 54.89 18.17 51.93 18.13 49.02 17.90 C 47.41 17.24 47.88 15.37 47.74 14.00 C 47.91 12.32 47.22 10.01 49.12 9.10 Z" />
<path fill="#ffffff" opacity="1.00" d=" M 32.23 23.17 C 34.04 22.42 36.06 22.72 37.96 22.64 C 39.65 22.80 42.00 22.17 42.93 24.06 C 43.05 26.27 43.43 28.66 42.64 30.77 C 39.37 32.35 35.42 31.53 31.93 31.10 C 31.94 28.47 31.43 25.73 32.23 23.17 Z" />
<path fill="#ffffff" opacity="1.00" d=" M 48.00 22.93 C 51.30 22.72 54.68 22.32 57.95 22.98 C 59.34 24.71 58.82 27.08 58.85 29.13 C 58.97 30.19 58.05 31.41 56.97 31.47 C 53.94 31.72 50.87 31.69 47.88 31.11 C 47.76 28.38 47.73 25.65 48.00 22.93 Z" />
<path fill="#ffffff" opacity="1.00" d=" M 10.19 32.00 C 12.43 31.68 14.73 31.71 16.97 31.99 C 18.78 33.47 17.84 36.11 18.01 38.13 C 18.26 41.50 14.01 40.64 11.89 40.68 C 7.82 40.90 9.02 35.78 9.09 33.19 C 9.36 32.89 9.91 32.30 10.19 32.00 Z" />
<path fill="#ffffff" opacity="1.00" d=" M 32.31 44.62 C 31.60 41.91 30.48 35.87 34.94 36.17 C 37.49 36.35 40.59 35.38 42.69 37.29 C 43.38 39.46 42.93 41.81 43.10 44.06 C 39.91 45.84 35.69 45.41 32.31 44.62 Z" />
<path fill="#ffffff" opacity="1.00" d=" M 48.30 44.70 C 47.60 41.99 46.36 35.89 50.87 36.17 C 53.62 36.31 57.04 35.26 58.91 37.87 C 58.83 40.29 59.16 42.85 58.04 45.09 C 54.82 44.95 51.42 45.66 48.30 44.70 Z" />
<path fill="#ffffff" opacity="1.00" d=" M 10.41 45.62 C 12.72 45.39 15.64 44.72 17.62 46.23 C 18.37 48.37 18.04 50.75 17.90 52.97 C 17.01 54.87 14.60 54.03 12.95 54.25 C 11.35 54.38 8.87 54.18 9.00 52.00 C 9.21 49.94 8.03 46.74 10.41 45.62 Z" />
<path fill="#ffffff" opacity="1.00" d=" M 79.11 50.20 C 86.86 48.49 95.19 54.94 95.11 62.96 C 95.72 70.59 88.60 77.64 81.00 77.06 C 73.13 76.88 66.53 68.66 68.31 60.93 C 69.29 55.58 73.81 51.22 79.11 50.20 M 79.48 54.54 C 72.82 55.93 70.19 65.23 75.16 69.88 C 79.24 74.37 87.25 73.07 89.79 67.59 C 93.68 61.14 86.62 52.37 79.48 54.54 Z" />
<path fill="#ffffff" opacity="1.00" d=" M 10.43 59.10 C 12.57 58.83 14.74 58.97 16.90 58.92 C 18.61 61.19 18.06 64.16 17.86 66.78 C 15.57 68.87 11.49 68.42 8.99 66.81 C 9.33 64.27 7.91 60.82 10.43 59.10 Z" />
</svg>
