<?xml version="1.0" encoding="UTF-8" ?>
<!DOCTYPE svg PUBLIC "-//W3C//DTD SVG 1.1//EN" "http://www.w3.org/Graphics/SVG/1.1/DTD/svg11.dtd">
<svg width="81pt" height="51pt" viewBox="0 0 81 51" version="1.1" xmlns="http://www.w3.org/2000/svg">
<path fill="#ffffff" opacity="1.00" d=" M 1.77 0.00 L 3.86 0.00 C 4.96 0.71 6.38 1.39 6.17 2.96 C 6.38 12.28 6.15 21.60 6.26 30.93 C 30.93 30.96 55.59 30.93 80.25 30.94 C 80.25 37.55 80.25 44.15 80.25 50.75 C 78.37 50.75 76.49 50.75 74.62 50.75 C 74.62 46.28 74.63 41.81 74.58 37.34 C 51.81 37.30 29.04 37.28 6.27 37.34 C 6.23 41.81 6.24 46.28 6.24 50.75 C 4.16 50.75 2.08 50.75 0.00 50.75 L 0.00 1.82 C 1.31 1.80 1.90 1.19 1.77 0.00 Z" />
<path fill="#ffffff" opacity="1.00" d=" M 14.42 5.36 C 18.48 3.41 23.43 7.66 22.41 11.97 C 22.05 16.52 15.75 18.65 12.65 15.38 C 9.50 12.57 10.56 6.97 14.42 5.36 Z" />
<path fill="#ffffff" opacity="1.00" d=" M 26.06 10.05 C 26.72 8.60 28.40 7.99 29.90 8.33 C 43.91 9.47 57.87 11.09 71.85 12.49 C 74.62 12.95 78.18 12.51 80.01 15.13 C 80.49 18.58 80.17 22.08 80.25 25.56 C 60.15 25.56 40.05 25.55 19.95 25.56 C 16.97 25.52 13.91 25.86 11.02 24.96 C 11.08 23.55 10.60 21.79 12.16 21.00 C 16.74 20.60 21.34 20.96 25.93 20.81 C 26.01 17.22 25.78 13.63 26.06 10.05 Z" />
</svg>
