<?xml version="1.0" encoding="UTF-8" ?>
<!DOCTYPE svg PUBLIC "-//W3C//DTD SVG 1.1//EN" "http://www.w3.org/Graphics/SVG/1.1/DTD/svg11.dtd">
<svg width="84pt" height="87pt" viewBox="0 0 84 87" version="1.1" xmlns="http://www.w3.org/2000/svg">
<path fill="#ffffff" opacity="1.00" d=" M 40.31 7.05 C 41.09 3.36 44.80 1.71 48.01 0.59 C 50.93 1.82 54.31 3.17 55.30 6.52 C 57.18 11.27 53.20 17.16 48.03 16.90 C 42.95 17.32 38.82 11.88 40.31 7.05 Z" />
<path fill="#ffffff" opacity="1.00" d=" M 43.40 21.16 C 45.39 18.60 49.33 18.07 51.95 19.99 C 56.74 23.25 61.67 26.35 66.24 29.92 C 68.06 34.11 68.28 38.83 69.54 43.21 C 71.12 44.31 72.41 45.74 73.09 47.57 C 74.40 47.31 75.72 47.05 77.05 46.81 C 79.27 55.72 81.39 64.66 83.78 73.53 C 77.22 75.07 70.57 76.19 63.96 77.51 C 62.57 68.40 60.86 59.35 59.43 50.25 C 60.80 50.00 62.15 49.74 63.51 49.47 C 63.63 47.87 63.92 46.30 64.49 44.80 C 63.25 41.19 62.28 37.46 60.56 34.04 C 58.84 32.46 56.78 31.34 54.86 30.05 C 54.97 38.89 54.10 47.80 55.90 56.53 C 56.55 66.11 61.30 74.65 64.53 83.52 C 62.71 84.40 60.87 85.27 59.01 86.07 C 56.20 80.55 53.33 75.04 50.43 69.56 C 47.86 65.26 48.38 60.05 47.29 55.32 C 45.77 59.85 43.28 64.15 43.00 68.99 C 42.49 74.99 42.27 81.02 41.56 87.00 L 35.61 87.00 C 34.98 79.77 35.30 72.48 34.97 65.24 C 36.43 59.13 39.49 53.51 41.31 47.51 C 41.83 43.46 41.19 39.33 41.90 35.29 C 40.28 36.23 39.50 38.08 37.98 39.14 C 34.17 40.22 30.23 40.73 26.38 41.60 C 26.45 42.05 26.58 42.95 26.65 43.40 C 28.04 43.41 29.44 43.41 30.83 43.40 C 31.34 53.14 31.53 62.90 31.88 72.65 C 25.17 72.66 18.46 72.68 11.75 72.64 C 12.33 62.91 12.52 53.16 12.88 43.43 C 14.27 43.41 15.67 43.40 17.06 43.38 C 17.53 42.14 17.63 40.64 18.69 39.71 C 22.80 35.35 29.32 35.42 34.58 33.24 C 37.57 29.25 40.34 25.09 43.40 21.16 M 19.10 43.37 C 20.93 42.92 24.32 44.68 24.98 42.24 C 24.23 42.26 22.72 42.31 21.97 42.33 C 21.79 41.74 21.45 40.57 21.27 39.98 C 20.01 40.72 19.23 41.91 19.10 43.37 M 65.61 46.69 C 65.56 47.24 65.45 48.34 65.39 48.89 C 67.29 48.67 69.19 48.39 71.07 48.05 C 70.70 47.04 70.15 46.15 69.41 45.37 C 68.15 45.82 66.88 46.26 65.61 46.69 Z" />
<path fill="#ffffff" opacity="1.00" d=" M 0.00 54.45 C 4.86 49.61 7.85 43.26 12.02 37.85 C 13.61 38.92 15.19 40.03 16.71 41.21 C 14.89 41.46 13.05 41.56 11.22 41.64 C 10.76 48.24 10.72 54.87 10.42 61.49 C 7.62 59.72 4.72 58.09 2.10 56.04 C 1.58 55.95 0.53 55.76 0.00 55.67 L 0.00 54.45 Z" />
</svg>
